xof 0303txt 0032
template XSkinMeshHeader {
 <3cf169ce-ff7c-44ab-93c0-f78f62d172e2>
 WORD nMaxSkinWeightsPerVertex;
 WORD nMaxSkinWeightsPerFace;
 WORD nBones;
}

template VertexDuplicationIndices {
 <b8d65549-d7c9-4995-89cf-53a9a8b031e3>
 DWORD nIndices;
 DWORD nOriginalVertices;
 array DWORD indices[nIndices];
}

template SkinWeights {
 <6f0d123b-bad2-4167-a0d0-80224f25fabb>
 STRING transformNodeName;
 DWORD nWeights;
 array DWORD vertexIndices[nWeights];
 array FLOAT weights[nWeights];
 Matrix4x4 matrixOffset;
}

template AnimTicksPerSecond {
 <9e415a43-7ba6-4a73-8743-b73d47e88476>
 DWORD AnimTicksPerSecond;
}


AnimTicksPerSecond {
 24;
}

Mesh {
 488;
 -0.181887;5.900064;5.593703;,
 3.494066;5.187209;4.507602;,
 -3.060510;0.156412;8.171780;,
 2.902619;0.156412;8.235418;,
 0.546191;10.272840;3.058053;,
 3.610109;8.890488;2.498032;,
 3.273209;13.732550;0.775543;,
 5.784986;12.070920;0.383811;,
 8.055317;16.776533;0.491290;,
 10.125381;15.167188;-0.220050;,
 7.155046;0.156412;3.489382;,
 5.113057;4.123664;0.817969;,
 5.114929;7.527263;-0.526930;,
 7.250501;11.009926;-2.310229;,
 10.877790;14.418626;-3.605631;,
 10.050513;19.097458;-4.082214;,
 10.247039;14.760388;-6.183707;,
 3.602623;3.265432;-3.672098;,
 7.207452;0.156412;-3.871499;,
 4.091127;6.935554;-4.564455;,
 6.771354;11.185908;-6.025317;,
 3.087914;0.156412;-8.648648;,
 0.068916;3.211872;-5.803289;,
 1.300473;7.518336;-6.770598;,
 4.714392;12.457316;-8.140952;,
 8.107724;16.266439;-8.454904;,
 -3.607037;3.924727;-4.717187;,
 -2.875215;0.156412;-8.713701;,
 -1.763445;8.899414;-6.210577;,
 2.202616;14.118945;-7.749220;,
 6.041404;17.873234;-7.726593;,
 -7.187535;0.156412;-4.027061;,
 -5.274692;4.988272;-1.051596;,
 -3.305699;10.271565;-3.212485;,
 0.707154;15.199068;-5.080636;,
 5.244074;18.649851;-4.483846;,
 5.876697;18.305538;-1.890213;,
 -3.764257;5.846505;3.438471;,
 -7.239942;0.156412;3.335235;,
 -2.283769;10.863274;0.825040;,
 1.186301;15.021811;-1.365547;,
 14.695990;20.567802;1.211115;,
 11.862287;21.187567;1.964881;,
 12.187957;20.821573;-2.533671;,
 14.815777;20.339535;-1.840716;,
 10.078588;21.373751;-0.597639;,
 13.876200;19.728699;-8.365809;,
 11.997046;21.821358;-7.336276;,
 14.447059;20.167379;-3.911097;,
 15.485833;18.671530;-5.984306;,
 12.350792;22.166945;-4.249089;,
 15.785300;25.698067;0.721804;,
 13.093843;25.460875;0.827869;,
 14.349731;25.080854;-3.039953;,
 16.547068;25.428993;-1.922740;,
 12.051325;25.032396;-1.758693;,
 18.036915;25.133139;-8.174892;,
 19.777565;23.468960;-9.406656;,
 21.158854;22.098083;-7.443754;,
 20.148155;23.040480;-5.373374;,
 18.257771;24.871716;-5.373374;,
 14.609893;29.982853;-0.500060;,
 12.363894;29.486786;-0.789970;,
 13.866841;29.996880;-3.911097;,
 15.556956;30.313139;-2.646807;,
 11.806137;29.486786;-3.144603;,
 24.394966;28.402838;-7.839729;,
 25.617165;26.708052;-8.846635;,
 26.311552;25.214754;-7.142531;,
 25.474918;26.130371;-5.405900;,
 24.271437;28.038122;-5.451154;,
 12.335818;34.747128;-0.498646;,
 10.758003;34.002388;-0.918662;,
 12.337690;34.089104;-3.119148;,
 13.359620;34.780281;-2.020319;,
 10.728057;33.534378;-2.731659;,
 31.520401;30.336092;-6.670190;,
 32.727627;29.101665;-7.156673;,
 33.105701;28.082754;-5.678840;,
 32.136177;28.782858;-4.538999;,
 31.089916;30.142258;-4.858607;,
 9.092220;38.848278;-2.877321;,
 8.068419;38.181332;-3.157331;,
 9.350511;37.981117;-4.534757;,
 9.932599;38.686321;-3.830488;,
 8.225638;37.571770;-4.302829;,
 37.938343;32.915890;-4.277373;,
 38.640221;31.942886;-4.639407;,
 38.711342;31.128012;-3.653713;,
 38.078720;31.672537;-2.857522;,
 37.537807;32.750111;-3.044196;,
 5.288994;45.782997;-8.413892;,
 46.022072;36.557957;-0.492989;,
 38.524178;32.478485;-4.694561;,
 34.159451;36.005783;-5.097606;,
 37.773640;31.912281;-4.147267;,
 34.954910;36.297810;-5.445498;,
 34.412125;36.839783;-4.727087;,
 38.411877;32.621311;-3.622601;,
 30.659433;39.897793;-6.878077;,
 31.529758;39.790676;-7.016667;,
 30.964516;40.448696;-6.572610;,
 28.222525;43.479927;-8.910274;,
 28.827072;43.340927;-9.084220;,
 25.680801;46.585121;-11.225310;,
 23.893360;48.622944;-13.871267;,
 42.802807;36.064442;-4.281616;,
 38.737545;31.899529;-4.019990;,
 41.947456;36.444462;-4.176965;,
 42.164566;36.128204;-4.977399;,
 46.089451;40.043171;-4.980228;,
 49.920753;43.847195;-5.125890;,
 49.988132;44.470783;-5.306907;,
 54.098312;46.799358;-4.438591;,
 57.860363;50.764061;-4.199593;,
 31.550346;29.785191;-6.404321;,
 32.602222;33.098248;-1.912840;,
 32.042595;28.985620;-5.620858;,
 32.115589;33.519077;-2.713274;,
 33.109444;33.893993;-2.339927;,
 32.761314;29.616861;-6.383109;,
 32.239120;37.092281;1.700426;,
 31.720669;37.275913;1.086666;,
 32.463718;37.747749;1.308695;,
 31.627085;40.981743;5.340563;,
 30.556492;44.598305;8.588967;,
 28.997395;47.473957;11.792117;,
 13.893045;25.913582;-1.248169;,
 14.735295;28.308472;3.895256;,
 14.128875;24.792652;-0.420865;,
 14.656685;29.284025;3.281496;,
 15.656155;28.678289;3.297052;,
 15.208827;25.436646;-1.062909;,
 15.789043;31.772005;8.348554;,
 15.744123;32.173706;7.474582;,
 16.541452;31.959465;7.884698;,
 16.376747;35.966248;11.908081;,
 16.193323;36.101425;11.195328;,
 16.796000;35.949673;11.328261;,
 17.243328;40.262512;14.456459;,
 17.181562;40.197475;13.948764;,
 17.628891;44.501389;15.781560;,
 19.637190;23.943346;-8.046201;,
 14.520053;26.663420;-7.623357;,
 18.826757;23.064711;-7.156673;,
 14.980483;27.214321;-8.606222;,
 15.418453;27.488495;-7.480523;,
 19.610987;24.189466;-6.576853;,
 10.495971;30.478918;-7.773262;,
 10.898378;30.663828;-8.609051;,
 11.087417;31.207077;-7.859528;,
 6.273490;33.901646;-8.788653;,
 6.627235;34.012592;-9.354331;,
 6.544882;34.520134;-8.863605;,
 1.783363;36.809177;-10.334368;,
 -1.299272;40.606823;-12.134637;,
 23.693090;26.965651;-8.234289;,
 20.047085;23.166729;-7.073236;,
 23.270094;28.122286;-7.957107;,
 23.030521;27.587963;-9.048865;,
 27.644178;30.106550;-9.842228;,
 27.550596;31.099957;-9.565045;,
 27.460756;30.894646;-10.480029;,
 32.330833;32.723331;-10.907116;,
 32.134308;33.331615;-11.236624;,
 36.646896;36.106525;-10.898631;,
 39.883007;39.951355;-10.067085;,
 12.045711;34.432144;-1.989207;,
 7.974835;38.645515;-2.266389;,
 11.310145;33.971783;-1.498481;,
 8.760936;38.803642;-1.885970;,
 11.957742;34.543087;-1.003513;,
 5.101827;43.538586;-2.972072;,
 5.906644;43.199375;-3.198343;,
 5.828034;43.386833;-2.594482;,
 3.477221;47.885857;-3.780991;,
 3.995672;47.887135;-3.663613;,
 1.132023;52.509857;-4.686075;,
 -1.235636;56.998680;-5.920667;,
 49.329308;39.969208;-18.573463;,
 -8.052245;44.548573;-17.343115;,
 20.704039;50.069057;-45.666599;,
 20.475697;32.488686;9.120705;,
 34.000359;16.897680;-10.979240;,
 8.730989;66.071968;-27.051559;,
 5.376962;26.996256;-38.073792;,
 35.892612;55.594646;1.445871;,
 32.836182;35.961147;-25.088657;,
 13.535557;81.421951;-8.840979;,
 20.181845;66.207138;-41.668671;,
 24.492292;50.413372;7.642871;,
 11.946512;35.648716;-9.717779;,
 33.184311;80.200279;-26.065866;,
 -0.705954;65.894707;-26.297794;,
 45.415653;50.686272;-7.827001;,
 38.026314;49.048870;10.711673;,
 71.738770;49.287342;-35.963810;,
 65.408791;74.808594;-4.845879;,
 45.827419;22.656635;-19.255106;,
 56.443512;27.302311;7.121033;,
 54.365963;71.584801;-29.618322;,
 83.825996;53.063309;-8.436519;,
 27.378403;44.488636;-15.579615;,
 39.733273;34.099308;6.457776;,
 88.608101;51.753643;4.813068;,
 69.554535;29.962448;27.515131;,
 59.241653;54.351292;-17.187553;,
 53.929863;29.011124;-14.643417;,
 73.816322;54.221218;26.246597;,
 83.751129;24.874266;6.413936;,
 44.983299;59.384640;3.991421;,
 12.343306;32.127796;-3.573104;,
 50.837872;73.641754;6.906076;,
 10.159070;71.434326;6.705260;,
 52.936008;33.809830;-1.379689;,
 31.731899;27.781799;17.168884;,
 29.182690;77.374359;-11.972005;,
 29.547665;67.088326;27.445835;,
 33.425758;38.153275;-22.137234;,
 20.687195;26.750135;1.201216;,
 15.935033;71.681717;26.926825;,
 -5.755710;42.514576;21.254492;,
 43.003075;55.037369;8.389565;,
 37.987007;32.176254;19.746960;,
 -1.941254;63.860710;9.502537;,
 11.544104;47.940693;39.801651;,
 25.632137;49.529636;-10.185877;,
 -5.304638;28.855547;2.274589;,
 34.857582;56.380192;33.006447;,
 -5.877368;55.770630;32.780174;,
 35.340473;27.919525;3.862730;,
 14.080212;13.143392;16.499969;,
 13.200528;70.604149;20.051012;,
 13.507482;40.059750;47.005558;,
 15.832091;43.641880;-10.375380;,
 -1.774675;34.466576;9.785376;,
 32.516129;73.311470;14.063313;,
 -4.170409;71.021149;12.591137;,
 34.752769;36.603867;13.105904;,
 14.862568;34.029171;29.676020;,
 13.758285;73.481071;-4.167066;,
 12.468707;70.583740;32.483196;,
 18.003225;37.034897;-6.805953;,
 18.351355;14.279625;-23.344955;,
 -19.521818;55.887951;-11.123488;,
 -14.833293;29.204960;-41.548466;,
 12.508012;39.534351;8.016218;,
 4.040593;12.776125;1.512339;,
 -6.045818;54.613991;-36.735962;,
 -29.145927;27.701460;-16.691172;,
 26.843105;40.968990;-16.942898;,
 0.368383;22.620928;-21.947731;,
 -19.358982;61.780804;5.989678;,
 -32.874287;37.879101;-18.491440;,
 13.449460;45.278004;3.848588;,
 2.599409;21.633898;3.874043;,
 -22.726110;60.313011;-19.909878;,
 -30.643259;36.890793;7.330334;,
 11.181000;46.203827;-22.059452;,
 17.355629;25.531012;10.950672;,
 60.007164;52.222927;-17.040478;,
 50.048027;47.022526;22.118565;,
 28.405947;28.989445;-28.052809;,
 33.637257;10.072629;-6.962928;,
 44.217785;65.762085;3.124520;,
 66.329651;31.562868;4.204965;,
 12.085015;44.446552;-10.020416;,
 22.120892;33.700157;4.480732;,
 60.448879;61.760403;-16.655817;,
 42.095318;62.607155;15.215882;,
 41.681679;31.709518;-26.556591;,
 43.787304;21.415833;-2.755700;,
 38.932201;73.013062;-6.920502;,
 63.761726;50.322830;7.978035;,
 19.949759;44.005322;-19.228235;,
 6.561727;29.930569;-20.534952;,
 9.464682;83.722473;-0.212979;,
 3.484708;67.052620;-36.901424;,
 10.494099;46.539211;16.399563;,
 -11.662689;37.603649;0.296131;,
 25.441227;75.095520;-22.784935;,
 -14.737838;74.726974;-16.068926;,
 28.716644;38.813847;-4.547484;,
 -0.531889;36.948177;-17.986572;,
 -16.079823;83.161369;0.064204;,
 -26.607946;61.060299;-27.395208;,
 8.772165;58.142563;10.544798;,
 -7.968020;38.581753;6.807082;,
 -10.361881;79.487427;-25.196136;,
 -34.042206;62.695148;-2.601553;,
 16.185837;56.449051;-14.342195;,
 3.494066;5.187209;4.507602;,
 2.902619;0.156412;8.235418;,
 3.610109;8.890488;2.498032;,
 5.784986;12.070920;0.383811;,
 10.125381;15.167188;-0.220050;,
 -3.607037;3.924727;-4.717187;,
 -2.875215;0.156412;-8.713701;,
 -1.763445;8.899414;-6.210577;,
 2.202616;14.118945;-7.749220;,
 6.041404;17.873234;-7.726593;,
 14.695990;20.567802;1.211115;,
 11.997046;21.821358;-7.336276;,
 15.785300;25.698067;0.721804;,
 18.036915;25.133139;-8.174892;,
 14.609893;29.982853;-0.500060;,
 24.394966;28.402838;-7.839729;,
 12.335818;34.747128;-0.498646;,
 31.520401;30.336092;-6.670190;,
 9.092220;38.848278;-2.877321;,
 9.092220;38.848278;-2.877321;,
 9.092220;38.848278;-2.877321;,
 8.068419;38.181332;-3.157331;,
 37.938343;32.915890;-4.277373;,
 37.938343;32.915890;-4.277373;,
 5.288994;45.782997;-8.413892;,
 46.022072;36.557957;-0.492989;,
 34.159451;36.005783;-5.097606;,
 37.773640;31.912281;-4.147267;,
 38.411877;32.621311;-3.622601;,
 30.659433;39.897793;-6.878077;,
 28.222525;43.479927;-8.910274;,
 28.222525;43.479927;-8.910274;,
 25.680801;46.585121;-11.225310;,
 25.680801;46.585121;-11.225310;,
 25.680801;46.585121;-11.225310;,
 42.802807;36.064442;-4.281616;,
 38.737545;31.899529;-4.019990;,
 46.089451;40.043171;-4.980228;,
 46.089451;40.043171;-4.980228;,
 46.089451;40.043171;-4.980228;,
 49.920753;43.847195;-5.125890;,
 49.920753;43.847195;-5.125890;,
 54.098312;46.799358;-4.438591;,
 54.098312;46.799358;-4.438591;,
 54.098312;46.799358;-4.438591;,
 32.602222;33.098248;-1.912840;,
 32.042595;28.985620;-5.620858;,
 32.239120;37.092281;1.700426;,
 31.627085;40.981743;5.340563;,
 31.627085;40.981743;5.340563;,
 31.627085;40.981743;5.340563;,
 30.556492;44.598305;8.588967;,
 30.556492;44.598305;8.588967;,
 30.556492;44.598305;8.588967;,
 14.735295;28.308472;3.895256;,
 14.128875;24.792652;-0.420865;,
 15.789043;31.772005;8.348554;,
 16.376747;35.966248;11.908081;,
 17.243328;40.262512;14.456459;,
 17.243328;40.262512;14.456459;,
 19.637190;23.943346;-8.046201;,
 14.520053;26.663420;-7.623357;,
 18.826757;23.064711;-7.156673;,
 19.610987;24.189466;-6.576853;,
 10.495971;30.478918;-7.773262;,
 6.273490;33.901646;-8.788653;,
 1.783363;36.809177;-10.334368;,
 1.783363;36.809177;-10.334368;,
 1.783363;36.809177;-10.334368;,
 23.693090;26.965651;-8.234289;,
 20.047085;23.166729;-7.073236;,
 27.644178;30.106550;-9.842228;,
 32.330833;32.723331;-10.907116;,
 32.330833;32.723331;-10.907116;,
 36.646896;36.106525;-10.898631;,
 36.646896;36.106525;-10.898631;,
 36.646896;36.106525;-10.898631;,
 7.974835;38.645515;-2.266389;,
 11.310145;33.971783;-1.498481;,
 5.101827;43.538586;-2.972072;,
 3.477221;47.885857;-3.780991;,
 3.477221;47.885857;-3.780991;,
 1.132023;52.509857;-4.686075;,
 1.132023;52.509857;-4.686075;,
 1.132023;52.509857;-4.686075;,
 49.329308;39.969208;-18.573463;,
 -8.052245;44.548573;-17.343115;,
 20.704039;50.069057;-45.666599;,
 20.475697;32.488686;9.120705;,
 34.000359;16.897680;-10.979240;,
 8.730989;66.071968;-27.051559;,
 5.376962;26.996256;-38.073792;,
 35.892612;55.594646;1.445871;,
 32.836182;35.961147;-25.088657;,
 13.535557;81.421951;-8.840979;,
 20.181845;66.207138;-41.668671;,
 24.492292;50.413372;7.642871;,
 11.946512;35.648716;-9.717779;,
 33.184311;80.200279;-26.065866;,
 -0.705954;65.894707;-26.297794;,
 45.415653;50.686272;-7.827001;,
 38.026314;49.048870;10.711673;,
 71.738770;49.287342;-35.963810;,
 65.408791;74.808594;-4.845879;,
 45.827419;22.656635;-19.255106;,
 56.443512;27.302311;7.121033;,
 54.365963;71.584801;-29.618322;,
 83.825996;53.063309;-8.436519;,
 27.378403;44.488636;-15.579615;,
 39.733273;34.099308;6.457776;,
 88.608101;51.753643;4.813068;,
 69.554535;29.962448;27.515131;,
 59.241653;54.351292;-17.187553;,
 53.929863;29.011124;-14.643417;,
 73.816322;54.221218;26.246597;,
 83.751129;24.874266;6.413936;,
 44.983299;59.384640;3.991421;,
 12.343306;32.127796;-3.573104;,
 50.837872;73.641754;6.906076;,
 10.159070;71.434326;6.705260;,
 52.936008;33.809830;-1.379689;,
 31.731899;27.781799;17.168884;,
 29.182690;77.374359;-11.972005;,
 29.547665;67.088326;27.445835;,
 33.425758;38.153275;-22.137234;,
 20.687195;26.750135;1.201216;,
 15.935033;71.681717;26.926825;,
 -5.755710;42.514576;21.254492;,
 43.003075;55.037369;8.389565;,
 37.987007;32.176254;19.746960;,
 -1.941254;63.860710;9.502537;,
 11.544104;47.940693;39.801651;,
 25.632137;49.529636;-10.185877;,
 -5.304638;28.855547;2.274589;,
 34.857582;56.380192;33.006447;,
 -5.877368;55.770630;32.780174;,
 35.340473;27.919525;3.862730;,
 14.080212;13.143392;16.499969;,
 13.200528;70.604149;20.051012;,
 13.507482;40.059750;47.005558;,
 15.832091;43.641880;-10.375380;,
 -1.774675;34.466576;9.785376;,
 32.516129;73.311470;14.063313;,
 -4.170409;71.021149;12.591137;,
 34.752769;36.603867;13.105904;,
 14.862568;34.029171;29.676020;,
 13.758285;73.481071;-4.167066;,
 12.468707;70.583740;32.483196;,
 18.003225;37.034897;-6.805953;,
 18.351355;14.279625;-23.344955;,
 -19.521818;55.887951;-11.123488;,
 -14.833293;29.204960;-41.548466;,
 12.508012;39.534351;8.016218;,
 4.040593;12.776125;1.512339;,
 -6.045818;54.613991;-36.735962;,
 -29.145927;27.701460;-16.691172;,
 26.843105;40.968990;-16.942898;,
 0.368383;22.620928;-21.947731;,
 -19.358982;61.780804;5.989678;,
 -32.874287;37.879101;-18.491440;,
 13.449460;45.278004;3.848588;,
 2.599409;21.633898;3.874043;,
 -22.726110;60.313011;-19.909878;,
 -30.643259;36.890793;7.330334;,
 11.181000;46.203827;-22.059452;,
 17.355629;25.531012;10.950672;,
 60.007164;52.222927;-17.040478;,
 50.048027;47.022526;22.118565;,
 28.405947;28.989445;-28.052809;,
 33.637257;10.072629;-6.962928;,
 44.217785;65.762085;3.124520;,
 66.329651;31.562868;4.204965;,
 12.085015;44.446552;-10.020416;,
 22.120892;33.700157;4.480732;,
 60.448879;61.760403;-16.655817;,
 42.095318;62.607155;15.215882;,
 41.681679;31.709518;-26.556591;,
 43.787304;21.415833;-2.755700;,
 38.932201;73.013062;-6.920502;,
 63.761726;50.322830;7.978035;,
 19.949759;44.005322;-19.228235;,
 6.561727;29.930569;-20.534952;,
 9.464682;83.722473;-0.212979;,
 3.484708;67.052620;-36.901424;,
 10.494099;46.539211;16.399563;,
 -11.662689;37.603649;0.296131;,
 25.441227;75.095520;-22.784935;,
 -14.737838;74.726974;-16.068926;,
 28.716644;38.813847;-4.547484;,
 -0.531889;36.948177;-17.986572;,
 -16.079823;83.161369;0.064204;,
 -26.607946;61.060299;-27.395208;,
 8.772165;58.142563;10.544798;,
 -7.968020;38.581753;6.807082;,
 -10.361881;79.487427;-25.196136;,
 -34.042206;62.695148;-2.601553;,
 16.185837;56.449051;-14.342195;;
 477;
 3;0,2,291;,
 3;291,2,292;,
 3;4,0,291;,
 3;293,4,291;,
 3;6,4,294;,
 3;294,4,293;,
 3;8,6,294;,
 3;295,8,294;,
 3;1,3,10;,
 3;11,1,10;,
 3;5,1,12;,
 3;12,1,11;,
 3;7,5,12;,
 3;13,7,12;,
 3;9,7,14;,
 3;14,7,13;,
 3;15,14,16;,
 3;11,10,17;,
 3;17,10,18;,
 3;12,11,17;,
 3;19,12,17;,
 3;13,12,20;,
 3;20,12,19;,
 3;14,13,20;,
 3;16,14,20;,
 3;17,18,21;,
 3;22,17,21;,
 3;19,17,23;,
 3;23,17,22;,
 3;20,19,23;,
 3;24,20,23;,
 3;16,20,25;,
 3;25,20,24;,
 3;22,21,296;,
 3;296,21,297;,
 3;23,22,296;,
 3;298,23,296;,
 3;24,23,299;,
 3;299,23,298;,
 3;25,24,299;,
 3;300,25,299;,
 3;26,27,31;,
 3;32,26,31;,
 3;28,26,33;,
 3;33,26,32;,
 3;29,28,33;,
 3;34,29,33;,
 3;30,29,35;,
 3;35,29,34;,
 3;15,35,36;,
 3;32,31,37;,
 3;37,31,38;,
 3;33,32,37;,
 3;39,33,37;,
 3;34,33,40;,
 3;40,33,39;,
 3;35,34,40;,
 3;36,35,40;,
 3;37,38,2;,
 3;0,37,2;,
 3;39,37,4;,
 3;4,37,0;,
 3;40,39,4;,
 3;6,40,4;,
 3;36,40,8;,
 3;8,40,6;,
 3;295,301,8;,
 3;8,301,42;,
 3;15,43,14;,
 3;14,43,44;,
 3;14,44,9;,
 3;9,44,41;,
 3;36,45,15;,
 3;15,45,43;,
 3;8,42,36;,
 3;36,42,45;,
 3;25,300,46;,
 3;300,302,46;,
 3;15,16,48;,
 3;16,49,48;,
 3;16,25,49;,
 3;25,46,49;,
 3;35,15,50;,
 3;15,48,50;,
 3;30,35,47;,
 3;35,50,47;,
 3;301,303,42;,
 3;42,303,52;,
 3;43,53,44;,
 3;44,53,54;,
 3;44,54,41;,
 3;41,54,51;,
 3;45,55,43;,
 3;43,55,53;,
 3;42,52,45;,
 3;45,52,55;,
 3;302,304,46;,
 3;46,304,57;,
 3;49,58,48;,
 3;48,58,59;,
 3;46,57,49;,
 3;49,57,58;,
 3;48,59,50;,
 3;50,59,60;,
 3;50,60,47;,
 3;47,60,56;,
 3;303,305,52;,
 3;52,305,62;,
 3;53,63,54;,
 3;54,63,64;,
 3;54,64,51;,
 3;51,64,61;,
 3;55,65,53;,
 3;53,65,63;,
 3;52,62,55;,
 3;55,62,65;,
 3;304,306,57;,
 3;57,306,67;,
 3;58,68,59;,
 3;59,68,69;,
 3;57,67,58;,
 3;58,67,68;,
 3;59,69,60;,
 3;60,69,70;,
 3;60,70,56;,
 3;56,70,66;,
 3;305,307,62;,
 3;62,307,72;,
 3;63,73,64;,
 3;64,73,74;,
 3;64,74,61;,
 3;61,74,71;,
 3;65,75,63;,
 3;63,75,73;,
 3;62,72,65;,
 3;65,72,75;,
 3;306,308,67;,
 3;67,308,77;,
 3;68,78,69;,
 3;69,78,79;,
 3;67,77,68;,
 3;68,77,78;,
 3;69,79,70;,
 3;70,79,80;,
 3;70,80,66;,
 3;66,80,76;,
 3;307,311,72;,
 3;72,311,82;,
 3;73,83,74;,
 3;74,83,84;,
 3;74,84,71;,
 3;71,84,309;,
 3;75,85,73;,
 3;73,85,83;,
 3;72,82,75;,
 3;75,82,85;,
 3;308,314,77;,
 3;77,314,87;,
 3;78,88,79;,
 3;79,88,89;,
 3;77,87,78;,
 3;78,87,88;,
 3;79,89,80;,
 3;80,89,90;,
 3;80,90,76;,
 3;76,90,313;,
 3;310,91,312;,
 3;83,315,84;,
 3;84,315,309;,
 3;85,91,83;,
 3;82,91,85;,
 3;314,316,87;,
 3;88,316,89;,
 3;87,316,88;,
 3;89,92,90;,
 3;90,92,313;,
 3;93,318,317;,
 3;96,93,317;,
 3;97,319,93;,
 3;96,97,93;,
 3;95,319,97;,
 3;94,95,97;,
 3;96,317,320;,
 3;100,96,320;,
 3;101,97,96;,
 3;100,101,96;,
 3;94,97,101;,
 3;99,94,101;,
 3;100,320,322;,
 3;103,100,322;,
 3;321,101,100;,
 3;103,321,100;,
 3;99,101,321;,
 3;102,99,321;,
 3;103,322,325;,
 3;324,103,325;,
 3;323,321,103;,
 3;324,323,103;,
 3;102,321,323;,
 3;323,102,104;,
 3;324,325,105;,
 3;105,323,324;,
 3;323,104,105;,
 3;98,327,326;,
 3;108,98,326;,
 3;109,86,98;,
 3;108,109,98;,
 3;107,86,109;,
 3;106,107,109;,
 3;108,326,330;,
 3;329,108,330;,
 3;328,109,108;,
 3;329,328,108;,
 3;106,109,328;,
 3;110,106,328;,
 3;329,330,332;,
 3;331,329,332;,
 3;112,328,329;,
 3;331,112,329;,
 3;110,328,112;,
 3;111,110,112;,
 3;331,332,335;,
 3;334,331,335;,
 3;333,112,331;,
 3;334,333,331;,
 3;111,112,333;,
 3;333,111,113;,
 3;334,335,114;,
 3;114,333,334;,
 3;333,113,114;,
 3;115,337,336;,
 3;118,115,336;,
 3;119,120,115;,
 3;118,119,115;,
 3;117,120,119;,
 3;116,117,119;,
 3;118,336,338;,
 3;122,118,338;,
 3;123,119,118;,
 3;122,123,118;,
 3;116,119,123;,
 3;121,116,123;,
 3;122,338,341;,
 3;340,122,341;,
 3;339,123,122;,
 3;340,339,122;,
 3;121,123,339;,
 3;124,121,339;,
 3;340,341,344;,
 3;343,340,344;,
 3;342,339,340;,
 3;343,342,340;,
 3;124,339,342;,
 3;342,124,125;,
 3;343,344,126;,
 3;126,342,343;,
 3;342,125,126;,
 3;127,346,345;,
 3;130,127,345;,
 3;131,132,127;,
 3;130,131,127;,
 3;129,132,131;,
 3;128,129,131;,
 3;130,345,347;,
 3;134,130,347;,
 3;135,131,130;,
 3;134,135,130;,
 3;128,131,135;,
 3;133,128,135;,
 3;134,347,348;,
 3;137,134,348;,
 3;138,135,134;,
 3;137,138,134;,
 3;133,135,138;,
 3;136,133,138;,
 3;137,348,350;,
 3;140,137,350;,
 3;349,138,137;,
 3;140,349,137;,
 3;136,138,349;,
 3;349,136,139;,
 3;140,350,141;,
 3;141,349,140;,
 3;349,139,141;,
 3;351,353,352;,
 3;145,351,352;,
 3;146,354,351;,
 3;145,146,351;,
 3;144,354,146;,
 3;143,144,146;,
 3;145,352,355;,
 3;149,145,355;,
 3;150,146,145;,
 3;149,150,145;,
 3;143,146,150;,
 3;148,143,150;,
 3;149,355,356;,
 3;152,149,356;,
 3;153,150,149;,
 3;152,153,149;,
 3;148,150,153;,
 3;151,148,153;,
 3;152,356,359;,
 3;358,152,359;,
 3;357,153,152;,
 3;358,357,152;,
 3;151,153,357;,
 3;357,151,154;,
 3;358,359,155;,
 3;155,357,358;,
 3;357,154,155;,
 3;147,361,360;,
 3;158,147,360;,
 3;159,142,147;,
 3;158,159,147;,
 3;157,142,159;,
 3;156,157,159;,
 3;158,360,362;,
 3;161,158,362;,
 3;162,159,158;,
 3;161,162,158;,
 3;156,159,162;,
 3;160,156,162;,
 3;161,362,364;,
 3;363,161,364;,
 3;164,162,161;,
 3;363,164,161;,
 3;160,162,164;,
 3;163,160,164;,
 3;363,364,367;,
 3;366,363,367;,
 3;365,164,363;,
 3;366,365,363;,
 3;163,164,365;,
 3;365,163,165;,
 3;366,367,166;,
 3;166,365,366;,
 3;365,165,166;,
 3;167,369,368;,
 3;81,167,368;,
 3;170,171,167;,
 3;81,170,167;,
 3;169,171,170;,
 3;168,169,170;,
 3;81,368,370;,
 3;173,81,370;,
 3;174,170,81;,
 3;173,174,81;,
 3;168,170,174;,
 3;172,168,174;,
 3;173,370,372;,
 3;371,173,372;,
 3;176,174,173;,
 3;371,176,173;,
 3;172,174,176;,
 3;175,172,176;,
 3;371,372,375;,
 3;374,371,375;,
 3;373,176,371;,
 3;374,373,371;,
 3;175,176,373;,
 3;373,175,177;,
 3;374,375,178;,
 3;178,373,374;,
 3;373,177,178;,
 3;376,378,377;,
 3;377,379,376;,
 3;182,180,181;,
 3;181,179,182;,
 3;380,382,381;,
 3;381,383,380;,
 3;186,184,185;,
 3;185,183,186;,
 3;384,386,385;,
 3;385,387,384;,
 3;190,188,189;,
 3;189,187,190;,
 3;388,390,389;,
 3;389,391,388;,
 3;194,192,193;,
 3;193,191,194;,
 3;392,394,393;,
 3;393,395,392;,
 3;198,196,197;,
 3;197,195,198;,
 3;396,398,397;,
 3;397,399,396;,
 3;202,200,201;,
 3;201,199,202;,
 3;400,402,401;,
 3;401,403,400;,
 3;206,204,205;,
 3;205,203,206;,
 3;404,406,405;,
 3;405,407,404;,
 3;210,208,209;,
 3;209,207,210;,
 3;408,410,409;,
 3;409,411,408;,
 3;214,212,213;,
 3;213,211,214;,
 3;412,414,413;,
 3;413,415,412;,
 3;218,216,217;,
 3;217,215,218;,
 3;416,418,417;,
 3;417,419,416;,
 3;222,220,221;,
 3;221,219,222;,
 3;420,422,421;,
 3;421,423,420;,
 3;226,224,225;,
 3;225,223,226;,
 3;424,426,425;,
 3;425,427,424;,
 3;230,228,229;,
 3;229,227,230;,
 3;428,430,429;,
 3;429,431,428;,
 3;234,232,233;,
 3;233,231,234;,
 3;432,434,433;,
 3;433,435,432;,
 3;238,236,237;,
 3;237,235,238;,
 3;436,438,437;,
 3;437,439,436;,
 3;242,240,241;,
 3;241,239,242;,
 3;440,442,441;,
 3;441,443,440;,
 3;246,244,245;,
 3;245,243,246;,
 3;444,446,445;,
 3;445,447,444;,
 3;250,248,249;,
 3;249,247,250;,
 3;448,450,449;,
 3;449,451,448;,
 3;254,252,253;,
 3;253,251,254;,
 3;452,454,453;,
 3;453,455,452;,
 3;258,256,257;,
 3;257,255,258;,
 3;456,458,457;,
 3;457,459,456;,
 3;262,260,261;,
 3;261,259,262;,
 3;460,462,461;,
 3;461,463,460;,
 3;266,264,265;,
 3;265,263,266;,
 3;464,466,465;,
 3;465,467,464;,
 3;270,268,269;,
 3;269,267,270;,
 3;468,470,469;,
 3;469,471,468;,
 3;274,272,273;,
 3;273,271,274;,
 3;472,474,473;,
 3;473,475,472;,
 3;278,276,277;,
 3;277,275,278;,
 3;476,478,477;,
 3;477,479,476;,
 3;282,280,281;,
 3;281,279,282;,
 3;480,482,481;,
 3;481,483,480;,
 3;286,284,285;,
 3;285,283,286;,
 3;484,486,485;,
 3;485,487,484;,
 3;290,288,289;,
 3;289,287,290;;

 MeshNormals {
  488;
  0.000000;-0.850651;0.525731;,
  0.000000;-0.850651;0.525731;,
  0.000000;-0.850651;0.525731;,
  0.000000;-0.850651;0.525731;,
  0.000000;-0.850651;0.525731;,
  0.000000;-0.850651;0.525731;,
  0.000000;-0.850651;0.525731;,
  0.000000;-0.850651;0.525731;,
  0.000000;-0.850651;0.525731;,
  0.000000;-0.850651;0.525731;,
  0.000000;-0.850651;0.525731;,
  0.000000;-0.850651;0.525731;,
  0.000000;-0.850651;0.525731;,
  0.000000;-0.850651;0.525731;,
  0.000000;-0.850651;0.525731;,
  0.000000;-0.850651;0.525731;,
  0.000000;-0.850651;0.525731;,
  0.000000;-0.850651;0.525731;,
  0.000000;-0.850651;0.525731;,
  0.000000;-0.850651;0.525731;,
  0.000000;-0.850651;0.525731;,
  0.000000;-0.850651;0.525731;,
  0.000000;-0.850651;0.525731;,
  0.000000;-0.850651;0.525731;,
  0.000000;-0.850651;0.525731;,
  0.000000;-0.850651;0.525731;,
  0.000000;-0.850651;0.525731;,
  0.000000;-0.850651;0.525731;,
  0.000000;-0.850651;0.525731;,
  0.000000;-0.850651;0.525731;,
  0.000000;-0.850651;0.525731;,
  0.000000;-0.850651;0.525731;,
  0.000000;-0.850651;0.525731;,
  0.000000;-0.850651;0.525731;,
  0.000000;-0.850651;0.525731;,
  0.000000;-0.850651;0.525731;,
  0.000000;-0.850651;0.525731;,
  0.000000;-0.850651;0.525731;,
  0.000000;-0.850651;0.525731;,
  0.000000;-0.850651;0.525731;,
  0.000000;-0.850651;0.525731;,
  0.000000;-0.850651;0.525731;,
  0.000000;-0.850651;0.525731;,
  0.000000;-0.850651;0.525731;,
  0.000000;-0.850651;0.525731;,
  0.000000;-0.850651;0.525731;,
  0.000000;-0.850651;0.525731;,
  0.000000;-0.850651;0.525731;,
  0.000000;-0.850651;0.525731;,
  0.000000;-0.850651;0.525731;,
  0.000000;-0.850651;0.525731;,
  0.000000;-0.850651;0.525731;,
  0.000000;-0.850651;0.525731;,
  0.000000;-0.850651;0.525731;,
  0.000000;-0.850651;0.525731;,
  0.000000;-0.850651;0.525731;,
  0.000000;-0.850651;0.525731;,
  0.000000;-0.850651;0.525731;,
  0.000000;-0.850651;0.525731;,
  0.000000;-0.850651;0.525731;,
  0.000000;-0.850651;0.525731;,
  0.000000;-0.850651;0.525731;,
  0.000000;-0.850651;0.525731;,
  0.000000;-0.850651;0.525731;,
  0.000000;-0.850651;0.525731;,
  0.000000;-0.850651;0.525731;,
  0.000000;-0.850651;0.525731;,
  0.000000;-0.850651;0.525731;,
  0.000000;-0.850651;0.525731;,
  0.000000;-0.850651;0.525731;,
  0.000000;-0.850651;0.525731;,
  0.000000;-0.850651;0.525731;,
  0.000000;-0.850651;0.525731;,
  0.000000;-0.850651;0.525731;,
  0.000000;-0.850651;0.525731;,
  0.000000;-0.850651;0.525731;,
  0.000000;-0.850651;0.525731;,
  0.000000;-0.850651;0.525731;,
  0.000000;-0.850651;0.525731;,
  0.000000;-0.850651;0.525731;,
  0.000000;-0.850651;0.525731;,
  0.000000;-0.850651;0.525731;,
  0.000000;-0.850651;0.525731;,
  0.000000;-0.850651;0.525731;,
  0.000000;-0.850651;0.525731;,
  0.000000;-0.850651;0.525731;,
  0.000000;-0.850651;0.525731;,
  0.000000;-0.850651;0.525731;,
  0.000000;-0.850651;0.525731;,
  0.000000;-0.850651;0.525731;,
  0.000000;-0.850651;0.525731;,
  0.000000;-0.850651;0.525731;,
  0.000000;-0.850651;0.525731;,
  0.000000;-0.850651;0.525731;,
  0.000000;-0.850651;0.525731;,
  0.000000;-0.850651;0.525731;,
  0.000000;-0.850651;0.525731;,
  0.000000;-0.850651;0.525731;,
  0.000000;-0.850651;0.525731;,
  0.000000;-0.850651;0.525731;,
  0.000000;-0.850651;0.525731;,
  0.000000;-0.850651;0.525731;,
  0.000000;-0.850651;0.525731;,
  0.000000;-0.850651;0.525731;,
  0.000000;-0.850651;0.525731;,
  0.000000;-0.850651;0.525731;,
  0.000000;-0.850651;0.525731;,
  0.000000;-0.850651;0.525731;,
  0.000000;-0.850651;0.525731;,
  0.000000;-0.850651;0.525731;,
  0.000000;-0.850651;0.525731;,
  0.000000;-0.850651;0.525731;,
  0.000000;-0.850651;0.525731;,
  0.000000;-0.850651;0.525731;,
  0.000000;-0.850651;0.525731;,
  0.000000;-0.850651;0.525731;,
  0.000000;-0.850651;0.525731;,
  0.000000;-0.850651;0.525731;,
  0.000000;-0.850651;0.525731;,
  0.000000;-0.850651;0.525731;,
  0.000000;-0.850651;0.525731;,
  0.000000;-0.850651;0.525731;,
  0.000000;-0.850651;0.525731;,
  0.000000;-0.850651;0.525731;,
  0.000000;-0.850651;0.525731;,
  0.000000;-0.850651;0.525731;,
  0.000000;-0.850651;0.525731;,
  0.000000;-0.850651;0.525731;,
  0.000000;-0.850651;0.525731;,
  0.000000;-0.850651;0.525731;,
  0.000000;-0.850651;0.525731;,
  0.000000;-0.850651;0.525731;,
  0.000000;-0.850651;0.525731;,
  0.000000;-0.850651;0.525731;,
  0.000000;-0.850651;0.525731;,
  0.000000;-0.850651;0.525731;,
  0.000000;-0.850651;0.525731;,
  0.000000;-0.850651;0.525731;,
  0.000000;-0.850651;0.525731;,
  0.000000;-0.850651;0.525731;,
  0.000000;-0.850651;0.525731;,
  0.000000;-0.850651;0.525731;,
  0.000000;-0.850651;0.525731;,
  0.000000;-0.850651;0.525731;,
  0.000000;-0.850651;0.525731;,
  0.000000;-0.850651;0.525731;,
  0.000000;-0.850651;0.525731;,
  0.000000;-0.850651;0.525731;,
  0.000000;-0.850651;0.525731;,
  0.000000;-0.850651;0.525731;,
  0.000000;-0.850651;0.525731;,
  0.000000;-0.850651;0.525731;,
  0.000000;-0.850651;0.525731;,
  0.000000;-0.850651;0.525731;,
  0.000000;-0.850651;0.525731;,
  0.000000;-0.850651;0.525731;,
  0.000000;-0.850651;0.525731;,
  0.000000;-0.850651;0.525731;,
  0.000000;-0.850651;0.525731;,
  0.000000;-0.850651;0.525731;,
  0.000000;-0.850651;0.525731;,
  0.000000;-0.850651;0.525731;,
  0.000000;-0.850651;0.525731;,
  0.000000;-0.850651;0.525731;,
  0.000000;-0.850651;0.525731;,
  0.000000;-0.850651;0.525731;,
  0.000000;-0.850651;0.525731;,
  0.000000;-0.850651;0.525731;,
  0.000000;-0.850651;0.525731;,
  0.000000;-0.850651;0.525731;,
  0.000000;-0.850651;0.525731;,
  0.000000;-0.850651;0.525731;,
  0.000000;-0.850651;0.525731;,
  0.000000;-0.850651;0.525731;,
  0.000000;-0.850651;0.525731;,
  0.000000;-0.850651;0.525731;,
  0.000000;-0.850651;0.525731;,
  0.000000;-0.850651;0.525731;,
  0.000000;-0.850651;0.525731;,
  0.000000;-0.850651;0.525731;,
  0.000000;-0.850651;0.525731;,
  0.000000;-0.850651;0.525731;,
  0.000000;-0.850651;0.525731;,
  0.000000;-0.850651;0.525731;,
  0.000000;-0.850651;0.525731;,
  0.000000;-0.850651;0.525731;,
  0.000000;-0.850651;0.525731;,
  0.000000;-0.850651;0.525731;,
  0.000000;-0.850651;0.525731;,
  0.000000;-0.850651;0.525731;,
  0.000000;-0.850651;0.525731;,
  0.000000;-0.850651;0.525731;,
  0.000000;-0.850651;0.525731;,
  0.000000;-0.850651;0.525731;,
  0.000000;-0.850651;0.525731;,
  0.000000;-0.850651;0.525731;,
  0.000000;-0.850651;0.525731;,
  0.000000;-0.850651;0.525731;,
  0.000000;-0.850651;0.525731;,
  0.000000;-0.850651;0.525731;,
  0.000000;-0.850651;0.525731;,
  0.000000;-0.850651;0.525731;,
  0.000000;-0.850651;0.525731;,
  0.000000;-0.850651;0.525731;,
  0.000000;-0.850651;0.525731;,
  0.000000;-0.850651;0.525731;,
  0.000000;-0.850651;0.525731;,
  0.000000;-0.850651;0.525731;,
  0.000000;-0.850651;0.525731;,
  0.000000;-0.850651;0.525731;,
  0.000000;-0.850651;0.525731;,
  0.000000;-0.850651;0.525731;,
  0.000000;-0.850651;0.525731;,
  0.000000;-0.850651;0.525731;,
  0.000000;-0.850651;0.525731;,
  0.000000;-0.850651;0.525731;,
  0.000000;-0.850651;0.525731;,
  0.000000;-0.850651;0.525731;,
  0.000000;-0.850651;0.525731;,
  0.000000;-0.850651;0.525731;,
  0.000000;-0.850651;0.525731;,
  0.000000;-0.850651;0.525731;,
  0.000000;-0.850651;0.525731;,
  0.000000;-0.850651;0.525731;,
  0.000000;-0.850651;0.525731;,
  0.000000;-0.850651;0.525731;,
  0.000000;-0.850651;0.525731;,
  0.000000;-0.850651;0.525731;,
  0.000000;-0.850651;0.525731;,
  0.000000;-0.850651;0.525731;,
  0.000000;-0.850651;0.525731;,
  0.000000;-0.850651;0.525731;,
  0.000000;-0.850651;0.525731;,
  0.000000;-0.850651;0.525731;,
  0.000000;-0.850651;0.525731;,
  0.000000;-0.850651;0.525731;,
  0.000000;-0.850651;0.525731;,
  0.000000;-0.850651;0.525731;,
  0.000000;-0.850651;0.525731;,
  0.000000;-0.850651;0.525731;,
  0.000000;-0.850651;0.525731;,
  0.000000;-0.850651;0.525731;,
  0.000000;-0.850651;0.525731;,
  0.000000;-0.850651;0.525731;,
  0.000000;-0.850651;0.525731;,
  0.000000;-0.850651;0.525731;,
  0.000000;-0.850651;0.525731;,
  0.000000;-0.850651;0.525731;,
  0.000000;-0.850651;0.525731;,
  0.000000;-0.850651;0.525731;,
  0.000000;-0.850651;0.525731;,
  0.000000;-0.850651;0.525731;,
  0.000000;-0.850651;0.525731;,
  0.000000;-0.850651;0.525731;,
  0.000000;-0.850651;0.525731;,
  0.000000;-0.850651;0.525731;,
  0.000000;-0.850651;0.525731;,
  0.000000;-0.850651;0.525731;,
  0.000000;-0.850651;0.525731;,
  0.000000;-0.850651;0.525731;,
  0.000000;-0.850651;0.525731;,
  0.000000;-0.850651;0.525731;,
  0.000000;-0.850651;0.525731;,
  0.000000;-0.850651;0.525731;,
  0.000000;-0.850651;0.525731;,
  0.000000;-0.850651;0.525731;,
  0.000000;-0.850651;0.525731;,
  0.000000;-0.850651;0.525731;,
  0.000000;-0.850651;0.525731;,
  0.000000;-0.850651;0.525731;,
  0.000000;-0.850651;0.525731;,
  0.000000;-0.850651;0.525731;,
  0.000000;-0.850651;0.525731;,
  0.000000;-0.850651;0.525731;,
  0.000000;-0.850651;0.525731;,
  0.000000;-0.850651;0.525731;,
  0.000000;-0.850651;0.525731;,
  0.000000;-0.850651;0.525731;,
  0.000000;-0.850651;0.525731;,
  0.000000;-0.850651;0.525731;,
  0.000000;-0.850651;0.525731;,
  0.000000;-0.850651;0.525731;,
  0.000000;-0.850651;0.525731;,
  0.000000;-0.850651;0.525731;,
  0.000000;-0.850651;0.525731;,
  0.000000;-0.850651;0.525731;,
  0.000000;-0.850651;0.525731;,
  0.000000;-0.850651;0.525731;,
  0.000000;-0.850651;0.525731;,
  0.000000;-0.850651;0.525731;,
  0.000000;-0.850651;0.525731;,
  0.000000;-0.850651;0.525731;,
  0.000000;-0.850651;0.525731;,
  0.000000;-0.850651;0.525731;,
  0.000000;-0.850651;0.525731;,
  0.000000;-0.850651;0.525731;,
  0.000000;-0.850651;0.525731;,
  0.000000;-0.850651;0.525731;,
  0.000000;-0.850651;0.525731;,
  0.000000;-0.850651;0.525731;,
  0.000000;-0.850651;0.525731;,
  0.000000;-0.850651;0.525731;,
  0.000000;-0.850651;0.525731;,
  0.000000;-0.850651;0.525731;,
  0.000000;-0.850651;0.525731;,
  0.000000;-0.850651;0.525731;,
  0.000000;-0.850651;0.525731;,
  0.000000;-0.850651;0.525731;,
  0.000000;-0.850651;0.525731;,
  0.000000;-0.850651;0.525731;,
  0.000000;-0.850651;0.525731;,
  0.000000;-0.850651;0.525731;,
  0.000000;-0.850651;0.525731;,
  0.000000;-0.850651;0.525731;,
  0.000000;-0.850651;0.525731;,
  0.000000;-0.850651;0.525731;,
  0.000000;-0.850651;0.525731;,
  0.000000;-0.850651;0.525731;,
  0.000000;-0.850651;0.525731;,
  0.000000;-0.850651;0.525731;,
  0.000000;-0.850651;0.525731;,
  0.000000;-0.850651;0.525731;,
  0.000000;-0.850651;0.525731;,
  0.000000;-0.850651;0.525731;,
  0.000000;-0.850651;0.525731;,
  0.000000;-0.850651;0.525731;,
  0.000000;-0.850651;0.525731;,
  0.000000;-0.850651;0.525731;,
  0.000000;-0.850651;0.525731;,
  0.000000;-0.850651;0.525731;,
  0.000000;-0.850651;0.525731;,
  0.000000;-0.850651;0.525731;,
  0.000000;-0.850651;0.525731;,
  0.000000;-0.850651;0.525731;,
  0.000000;-0.850651;0.525731;,
  0.000000;-0.850651;0.525731;,
  0.000000;-0.850651;0.525731;,
  0.000000;-0.850651;0.525731;,
  0.000000;-0.850651;0.525731;,
  0.000000;-0.850651;0.525731;,
  0.000000;-0.850651;0.525731;,
  0.000000;-0.850651;0.525731;,
  0.000000;-0.850651;0.525731;,
  0.000000;-0.850651;0.525731;,
  0.000000;-0.850651;0.525731;,
  0.000000;-0.850651;0.525731;,
  0.000000;-0.850651;0.525731;,
  0.000000;-0.850651;0.525731;,
  0.000000;-0.850651;0.525731;,
  0.000000;-0.850651;0.525731;,
  0.000000;-0.850651;0.525731;,
  0.000000;-0.850651;0.525731;,
  0.000000;-0.850651;0.525731;,
  0.000000;-0.850651;0.525731;,
  0.000000;-0.850651;0.525731;,
  0.000000;-0.850651;0.525731;,
  0.000000;-0.850651;0.525731;,
  0.000000;-0.850651;0.525731;,
  0.000000;-0.850651;0.525731;,
  0.000000;-0.850651;0.525731;,
  0.000000;-0.850651;0.525731;,
  0.000000;-0.850651;0.525731;,
  0.000000;-0.850651;0.525731;,
  0.000000;-0.850651;0.525731;,
  0.000000;-0.850651;0.525731;,
  0.000000;-0.850651;0.525731;,
  0.000000;-0.850651;0.525731;,
  0.000000;-0.850651;0.525731;,
  0.000000;-0.850651;0.525731;,
  0.000000;-0.850651;0.525731;,
  0.000000;-0.850651;0.525731;,
  0.000000;-0.850651;0.525731;,
  0.000000;-0.850651;0.525731;,
  0.000000;-0.850651;0.525731;,
  0.000000;-0.850651;0.525731;,
  0.000000;-0.850651;0.525731;,
  0.000000;-0.850651;0.525731;,
  0.000000;-0.850651;0.525731;,
  0.000000;-0.850651;0.525731;,
  0.000000;-0.850651;0.525731;,
  0.000000;-0.850651;0.525731;,
  0.000000;-0.850651;0.525731;,
  0.000000;-0.850651;0.525731;,
  0.000000;-0.850651;0.525731;,
  0.000000;-0.850651;0.525731;,
  0.000000;-0.850651;0.525731;,
  0.000000;-0.850651;0.525731;,
  0.000000;-0.850651;0.525731;,
  0.000000;-0.850651;0.525731;,
  0.000000;-0.850651;0.525731;,
  0.000000;-0.850651;0.525731;,
  0.000000;-0.850651;0.525731;,
  0.000000;-0.850651;0.525731;,
  0.000000;-0.850651;0.525731;,
  0.000000;-0.850651;0.525731;,
  0.000000;-0.850651;0.525731;,
  0.000000;-0.850651;0.525731;,
  0.000000;-0.850651;0.525731;,
  0.000000;-0.850651;0.525731;,
  0.000000;-0.850651;0.525731;,
  0.000000;-0.850651;0.525731;,
  0.000000;-0.850651;0.525731;,
  0.000000;-0.850651;0.525731;,
  0.000000;-0.850651;0.525731;,
  0.000000;-0.850651;0.525731;,
  0.000000;-0.850651;0.525731;,
  0.000000;-0.850651;0.525731;,
  0.000000;-0.850651;0.525731;,
  0.000000;-0.850651;0.525731;,
  0.000000;-0.850651;0.525731;,
  0.000000;-0.850651;0.525731;,
  0.000000;-0.850651;0.525731;,
  0.000000;-0.850651;0.525731;,
  0.000000;-0.850651;0.525731;,
  0.000000;-0.850651;0.525731;,
  0.000000;-0.850651;0.525731;,
  0.000000;-0.850651;0.525731;,
  0.000000;-0.850651;0.525731;,
  0.000000;-0.850651;0.525731;,
  0.000000;-0.850651;0.525731;,
  0.000000;-0.850651;0.525731;,
  0.000000;-0.850651;0.525731;,
  0.000000;-0.850651;0.525731;,
  0.000000;-0.850651;0.525731;,
  0.000000;-0.850651;0.525731;,
  0.000000;-0.850651;0.525731;,
  0.000000;-0.850651;0.525731;,
  0.000000;-0.850651;0.525731;,
  0.000000;-0.850651;0.525731;,
  0.000000;-0.850651;0.525731;,
  0.000000;-0.850651;0.525731;,
  0.000000;-0.850651;0.525731;,
  0.000000;-0.850651;0.525731;,
  0.000000;-0.850651;0.525731;,
  0.000000;-0.850651;0.525731;,
  0.000000;-0.850651;0.525731;,
  0.000000;-0.850651;0.525731;,
  0.000000;-0.850651;0.525731;,
  0.000000;-0.850651;0.525731;,
  0.000000;-0.850651;0.525731;,
  0.000000;-0.850651;0.525731;,
  0.000000;-0.850651;0.525731;,
  0.000000;-0.850651;0.525731;,
  0.000000;-0.850651;0.525731;,
  0.000000;-0.850651;0.525731;,
  0.000000;-0.850651;0.525731;,
  0.000000;-0.850651;0.525731;,
  0.000000;-0.850651;0.525731;,
  0.000000;-0.850651;0.525731;,
  0.000000;-0.850651;0.525731;,
  0.000000;-0.850651;0.525731;,
  0.000000;-0.850651;0.525731;,
  0.000000;-0.850651;0.525731;,
  0.000000;-0.850651;0.525731;,
  0.000000;-0.850651;0.525731;,
  0.000000;-0.850651;0.525731;,
  0.000000;-0.850651;0.525731;,
  0.000000;-0.850651;0.525731;,
  0.000000;-0.850651;0.525731;,
  0.000000;-0.850651;0.525731;,
  0.000000;-0.850651;0.525731;,
  0.000000;-0.850651;0.525731;,
  0.000000;-0.850651;0.525731;,
  0.000000;-0.850651;0.525731;,
  0.000000;-0.850651;0.525731;,
  0.000000;-0.850651;0.525731;,
  0.000000;-0.850651;0.525731;,
  0.000000;-0.850651;0.525731;,
  0.000000;-0.850651;0.525731;,
  0.000000;-0.850651;0.525731;,
  0.000000;-0.850651;0.525731;,
  0.000000;-0.850651;0.525731;,
  0.000000;-0.850651;0.525731;,
  0.000000;-0.850651;0.525731;,
  0.000000;-0.850651;0.525731;,
  0.000000;-0.850651;0.525731;,
  0.000000;-0.850651;0.525731;,
  0.000000;-0.850651;0.525731;,
  0.000000;-0.850651;0.525731;,
  0.000000;-0.850651;0.525731;,
  0.000000;-0.850651;0.525731;,
  0.000000;-0.850651;0.525731;,
  0.000000;-0.850651;0.525731;,
  0.000000;-0.850651;0.525731;,
  0.000000;-0.850651;0.525731;,
  0.000000;-0.850651;0.525731;,
  0.000000;-0.850651;0.525731;,
  0.000000;-0.850651;0.525731;;
  477;
  3;0,2,291;,
  3;291,2,292;,
  3;4,0,291;,
  3;293,4,291;,
  3;6,4,294;,
  3;294,4,293;,
  3;8,6,294;,
  3;295,8,294;,
  3;1,3,10;,
  3;11,1,10;,
  3;5,1,12;,
  3;12,1,11;,
  3;7,5,12;,
  3;13,7,12;,
  3;9,7,14;,
  3;14,7,13;,
  3;15,14,16;,
  3;11,10,17;,
  3;17,10,18;,
  3;12,11,17;,
  3;19,12,17;,
  3;13,12,20;,
  3;20,12,19;,
  3;14,13,20;,
  3;16,14,20;,
  3;17,18,21;,
  3;22,17,21;,
  3;19,17,23;,
  3;23,17,22;,
  3;20,19,23;,
  3;24,20,23;,
  3;16,20,25;,
  3;25,20,24;,
  3;22,21,296;,
  3;296,21,297;,
  3;23,22,296;,
  3;298,23,296;,
  3;24,23,299;,
  3;299,23,298;,
  3;25,24,299;,
  3;300,25,299;,
  3;26,27,31;,
  3;32,26,31;,
  3;28,26,33;,
  3;33,26,32;,
  3;29,28,33;,
  3;34,29,33;,
  3;30,29,35;,
  3;35,29,34;,
  3;15,35,36;,
  3;32,31,37;,
  3;37,31,38;,
  3;33,32,37;,
  3;39,33,37;,
  3;34,33,40;,
  3;40,33,39;,
  3;35,34,40;,
  3;36,35,40;,
  3;37,38,2;,
  3;0,37,2;,
  3;39,37,4;,
  3;4,37,0;,
  3;40,39,4;,
  3;6,40,4;,
  3;36,40,8;,
  3;8,40,6;,
  3;295,301,8;,
  3;8,301,42;,
  3;15,43,14;,
  3;14,43,44;,
  3;14,44,9;,
  3;9,44,41;,
  3;36,45,15;,
  3;15,45,43;,
  3;8,42,36;,
  3;36,42,45;,
  3;25,300,46;,
  3;300,302,46;,
  3;15,16,48;,
  3;16,49,48;,
  3;16,25,49;,
  3;25,46,49;,
  3;35,15,50;,
  3;15,48,50;,
  3;30,35,47;,
  3;35,50,47;,
  3;301,303,42;,
  3;42,303,52;,
  3;43,53,44;,
  3;44,53,54;,
  3;44,54,41;,
  3;41,54,51;,
  3;45,55,43;,
  3;43,55,53;,
  3;42,52,45;,
  3;45,52,55;,
  3;302,304,46;,
  3;46,304,57;,
  3;49,58,48;,
  3;48,58,59;,
  3;46,57,49;,
  3;49,57,58;,
  3;48,59,50;,
  3;50,59,60;,
  3;50,60,47;,
  3;47,60,56;,
  3;303,305,52;,
  3;52,305,62;,
  3;53,63,54;,
  3;54,63,64;,
  3;54,64,51;,
  3;51,64,61;,
  3;55,65,53;,
  3;53,65,63;,
  3;52,62,55;,
  3;55,62,65;,
  3;304,306,57;,
  3;57,306,67;,
  3;58,68,59;,
  3;59,68,69;,
  3;57,67,58;,
  3;58,67,68;,
  3;59,69,60;,
  3;60,69,70;,
  3;60,70,56;,
  3;56,70,66;,
  3;305,307,62;,
  3;62,307,72;,
  3;63,73,64;,
  3;64,73,74;,
  3;64,74,61;,
  3;61,74,71;,
  3;65,75,63;,
  3;63,75,73;,
  3;62,72,65;,
  3;65,72,75;,
  3;306,308,67;,
  3;67,308,77;,
  3;68,78,69;,
  3;69,78,79;,
  3;67,77,68;,
  3;68,77,78;,
  3;69,79,70;,
  3;70,79,80;,
  3;70,80,66;,
  3;66,80,76;,
  3;307,311,72;,
  3;72,311,82;,
  3;73,83,74;,
  3;74,83,84;,
  3;74,84,71;,
  3;71,84,309;,
  3;75,85,73;,
  3;73,85,83;,
  3;72,82,75;,
  3;75,82,85;,
  3;308,314,77;,
  3;77,314,87;,
  3;78,88,79;,
  3;79,88,89;,
  3;77,87,78;,
  3;78,87,88;,
  3;79,89,80;,
  3;80,89,90;,
  3;80,90,76;,
  3;76,90,313;,
  3;310,91,312;,
  3;83,315,84;,
  3;84,315,309;,
  3;85,91,83;,
  3;82,91,85;,
  3;314,316,87;,
  3;88,316,89;,
  3;87,316,88;,
  3;89,92,90;,
  3;90,92,313;,
  3;93,318,317;,
  3;96,93,317;,
  3;97,319,93;,
  3;96,97,93;,
  3;95,319,97;,
  3;94,95,97;,
  3;96,317,320;,
  3;100,96,320;,
  3;101,97,96;,
  3;100,101,96;,
  3;94,97,101;,
  3;99,94,101;,
  3;100,320,322;,
  3;103,100,322;,
  3;321,101,100;,
  3;103,321,100;,
  3;99,101,321;,
  3;102,99,321;,
  3;103,322,325;,
  3;324,103,325;,
  3;323,321,103;,
  3;324,323,103;,
  3;102,321,323;,
  3;323,102,104;,
  3;324,325,105;,
  3;105,323,324;,
  3;323,104,105;,
  3;98,327,326;,
  3;108,98,326;,
  3;109,86,98;,
  3;108,109,98;,
  3;107,86,109;,
  3;106,107,109;,
  3;108,326,330;,
  3;329,108,330;,
  3;328,109,108;,
  3;329,328,108;,
  3;106,109,328;,
  3;110,106,328;,
  3;329,330,332;,
  3;331,329,332;,
  3;112,328,329;,
  3;331,112,329;,
  3;110,328,112;,
  3;111,110,112;,
  3;331,332,335;,
  3;334,331,335;,
  3;333,112,331;,
  3;334,333,331;,
  3;111,112,333;,
  3;333,111,113;,
  3;334,335,114;,
  3;114,333,334;,
  3;333,113,114;,
  3;115,337,336;,
  3;118,115,336;,
  3;119,120,115;,
  3;118,119,115;,
  3;117,120,119;,
  3;116,117,119;,
  3;118,336,338;,
  3;122,118,338;,
  3;123,119,118;,
  3;122,123,118;,
  3;116,119,123;,
  3;121,116,123;,
  3;122,338,341;,
  3;340,122,341;,
  3;339,123,122;,
  3;340,339,122;,
  3;121,123,339;,
  3;124,121,339;,
  3;340,341,344;,
  3;343,340,344;,
  3;342,339,340;,
  3;343,342,340;,
  3;124,339,342;,
  3;342,124,125;,
  3;343,344,126;,
  3;126,342,343;,
  3;342,125,126;,
  3;127,346,345;,
  3;130,127,345;,
  3;131,132,127;,
  3;130,131,127;,
  3;129,132,131;,
  3;128,129,131;,
  3;130,345,347;,
  3;134,130,347;,
  3;135,131,130;,
  3;134,135,130;,
  3;128,131,135;,
  3;133,128,135;,
  3;134,347,348;,
  3;137,134,348;,
  3;138,135,134;,
  3;137,138,134;,
  3;133,135,138;,
  3;136,133,138;,
  3;137,348,350;,
  3;140,137,350;,
  3;349,138,137;,
  3;140,349,137;,
  3;136,138,349;,
  3;349,136,139;,
  3;140,350,141;,
  3;141,349,140;,
  3;349,139,141;,
  3;351,353,352;,
  3;145,351,352;,
  3;146,354,351;,
  3;145,146,351;,
  3;144,354,146;,
  3;143,144,146;,
  3;145,352,355;,
  3;149,145,355;,
  3;150,146,145;,
  3;149,150,145;,
  3;143,146,150;,
  3;148,143,150;,
  3;149,355,356;,
  3;152,149,356;,
  3;153,150,149;,
  3;152,153,149;,
  3;148,150,153;,
  3;151,148,153;,
  3;152,356,359;,
  3;358,152,359;,
  3;357,153,152;,
  3;358,357,152;,
  3;151,153,357;,
  3;357,151,154;,
  3;358,359,155;,
  3;155,357,358;,
  3;357,154,155;,
  3;147,361,360;,
  3;158,147,360;,
  3;159,142,147;,
  3;158,159,147;,
  3;157,142,159;,
  3;156,157,159;,
  3;158,360,362;,
  3;161,158,362;,
  3;162,159,158;,
  3;161,162,158;,
  3;156,159,162;,
  3;160,156,162;,
  3;161,362,364;,
  3;363,161,364;,
  3;164,162,161;,
  3;363,164,161;,
  3;160,162,164;,
  3;163,160,164;,
  3;363,364,367;,
  3;366,363,367;,
  3;365,164,363;,
  3;366,365,363;,
  3;163,164,365;,
  3;365,163,165;,
  3;366,367,166;,
  3;166,365,366;,
  3;365,165,166;,
  3;167,369,368;,
  3;81,167,368;,
  3;170,171,167;,
  3;81,170,167;,
  3;169,171,170;,
  3;168,169,170;,
  3;81,368,370;,
  3;173,81,370;,
  3;174,170,81;,
  3;173,174,81;,
  3;168,170,174;,
  3;172,168,174;,
  3;173,370,372;,
  3;371,173,372;,
  3;176,174,173;,
  3;371,176,173;,
  3;172,174,176;,
  3;175,172,176;,
  3;371,372,375;,
  3;374,371,375;,
  3;373,176,371;,
  3;374,373,371;,
  3;175,176,373;,
  3;373,175,177;,
  3;374,375,178;,
  3;178,373,374;,
  3;373,177,178;,
  3;376,378,377;,
  3;377,379,376;,
  3;182,180,181;,
  3;181,179,182;,
  3;380,382,381;,
  3;381,383,380;,
  3;186,184,185;,
  3;185,183,186;,
  3;384,386,385;,
  3;385,387,384;,
  3;190,188,189;,
  3;189,187,190;,
  3;388,390,389;,
  3;389,391,388;,
  3;194,192,193;,
  3;193,191,194;,
  3;392,394,393;,
  3;393,395,392;,
  3;198,196,197;,
  3;197,195,198;,
  3;396,398,397;,
  3;397,399,396;,
  3;202,200,201;,
  3;201,199,202;,
  3;400,402,401;,
  3;401,403,400;,
  3;206,204,205;,
  3;205,203,206;,
  3;404,406,405;,
  3;405,407,404;,
  3;210,208,209;,
  3;209,207,210;,
  3;408,410,409;,
  3;409,411,408;,
  3;214,212,213;,
  3;213,211,214;,
  3;412,414,413;,
  3;413,415,412;,
  3;218,216,217;,
  3;217,215,218;,
  3;416,418,417;,
  3;417,419,416;,
  3;222,220,221;,
  3;221,219,222;,
  3;420,422,421;,
  3;421,423,420;,
  3;226,224,225;,
  3;225,223,226;,
  3;424,426,425;,
  3;425,427,424;,
  3;230,228,229;,
  3;229,227,230;,
  3;428,430,429;,
  3;429,431,428;,
  3;234,232,233;,
  3;233,231,234;,
  3;432,434,433;,
  3;433,435,432;,
  3;238,236,237;,
  3;237,235,238;,
  3;436,438,437;,
  3;437,439,436;,
  3;242,240,241;,
  3;241,239,242;,
  3;440,442,441;,
  3;441,443,440;,
  3;246,244,245;,
  3;245,243,246;,
  3;444,446,445;,
  3;445,447,444;,
  3;250,248,249;,
  3;249,247,250;,
  3;448,450,449;,
  3;449,451,448;,
  3;254,252,253;,
  3;253,251,254;,
  3;452,454,453;,
  3;453,455,452;,
  3;258,256,257;,
  3;257,255,258;,
  3;456,458,457;,
  3;457,459,456;,
  3;262,260,261;,
  3;261,259,262;,
  3;460,462,461;,
  3;461,463,460;,
  3;266,264,265;,
  3;265,263,266;,
  3;464,466,465;,
  3;465,467,464;,
  3;270,268,269;,
  3;269,267,270;,
  3;468,470,469;,
  3;469,471,468;,
  3;274,272,273;,
  3;273,271,274;,
  3;472,474,473;,
  3;473,475,472;,
  3;278,276,277;,
  3;277,275,278;,
  3;476,478,477;,
  3;477,479,476;,
  3;282,280,281;,
  3;281,279,282;,
  3;480,482,481;,
  3;481,483,480;,
  3;286,284,285;,
  3;285,283,286;,
  3;484,486,485;,
  3;485,487,484;,
  3;290,288,289;,
  3;289,287,290;;
 }

 MeshTextureCoords {
  488;
  0.166906;0.476021;,
  0.998244;0.476021;,
  0.166906;1.000716;,
  0.998244;1.000716;,
  0.166906;0.001778;,
  0.998244;0.001778;,
  0.166906;0.476021;,
  0.998244;0.476021;,
  0.166906;1.000716;,
  0.998244;1.000716;,
  0.791972;1.000716;,
  0.791972;0.476021;,
  0.791972;0.001778;,
  0.791972;0.476021;,
  0.791972;1.000716;,
  0.579450;0.849363;,
  0.366928;1.000716;,
  0.366928;0.476021;,
  0.366928;1.000716;,
  0.366928;0.001778;,
  0.366928;0.476021;,
  0.166906;1.000716;,
  0.166906;0.476021;,
  0.166906;0.001778;,
  0.166906;0.476021;,
  0.166906;1.000716;,
  0.998244;0.476021;,
  0.998244;1.000716;,
  0.998244;0.001778;,
  0.998244;0.476021;,
  0.998244;1.000716;,
  0.791972;1.000716;,
  0.791972;0.476021;,
  0.791972;0.001778;,
  0.791972;0.476021;,
  0.791972;1.000716;,
  0.366928;1.000716;,
  0.366928;0.476021;,
  0.366928;1.000716;,
  0.366928;0.001778;,
  0.366928;0.476021;,
  0.998244;0.476021;,
  0.166906;0.476021;,
  0.579450;0.476021;,
  0.791972;0.476021;,
  0.366928;0.476021;,
  0.166906;0.476021;,
  0.998244;0.476021;,
  0.579450;0.476021;,
  0.366928;0.476021;,
  0.791972;0.476021;,
  0.998244;0.001778;,
  0.166906;0.001778;,
  0.579450;0.001778;,
  0.791972;0.001778;,
  0.366928;0.001778;,
  0.998244;0.001778;,
  0.166906;0.001778;,
  0.366928;0.001778;,
  0.579450;0.001778;,
  0.791972;0.001778;,
  0.998244;0.476021;,
  0.166906;0.476021;,
  0.579450;0.476021;,
  0.791972;0.476021;,
  0.366928;0.476021;,
  0.998244;0.476021;,
  0.166906;0.476021;,
  0.366928;0.476021;,
  0.579450;0.476021;,
  0.791972;0.476021;,
  0.998244;1.000716;,
  0.166906;1.000716;,
  0.579450;1.000716;,
  0.791972;1.000716;,
  0.366928;1.000716;,
  0.998244;1.000716;,
  0.166906;1.000716;,
  0.366928;1.000716;,
  0.579450;1.000716;,
  0.791972;1.000716;,
  0.335674;0.506291;,
  0.166906;0.476021;,
  0.579450;0.476021;,
  0.791972;0.476021;,
  0.366928;0.476021;,
  0.660708;1.000716;,
  0.166906;0.476021;,
  0.366928;0.476021;,
  0.579450;0.476021;,
  0.791972;0.476021;,
  0.998244;0.001778;,
  0.998244;0.001778;,
  0.335674;1.000716;,
  0.998244;0.506291;,
  0.998244;1.000716;,
  0.335674;0.506291;,
  0.660708;0.506291;,
  0.335674;1.000716;,
  0.998244;0.001778;,
  0.335674;0.001778;,
  0.660708;0.001778;,
  0.998244;0.506291;,
  0.335674;0.506291;,
  0.998244;1.000716;,
  0.491941;0.001778;,
  0.998244;0.506291;,
  0.998244;1.000716;,
  0.335674;0.506291;,
  0.660708;0.506291;,
  0.998244;0.001778;,
  0.998244;0.506291;,
  0.660708;0.506291;,
  0.998244;1.000716;,
  0.491941;0.001778;,
  0.335674;1.000716;,
  0.998244;0.506291;,
  0.998244;1.000716;,
  0.335674;0.506291;,
  0.660708;0.506291;,
  0.660708;1.000716;,
  0.998244;0.001778;,
  0.335674;0.001778;,
  0.660708;0.001778;,
  0.998244;0.506291;,
  0.998244;1.000716;,
  0.491941;0.001778;,
  0.335674;1.000716;,
  0.998244;0.506291;,
  0.998244;1.000716;,
  0.335674;0.506291;,
  0.660708;0.506291;,
  0.660708;1.000716;,
  0.998244;0.001778;,
  0.335674;0.001778;,
  0.660708;0.001778;,
  0.998244;0.506291;,
  0.335674;0.506291;,
  0.660708;0.506291;,
  0.998244;1.000716;,
  0.335674;1.000716;,
  0.491941;0.001778;,
  0.660708;1.000716;,
  0.998244;0.506291;,
  0.998244;1.000716;,
  0.335674;0.506291;,
  0.660708;0.506291;,
  0.335674;1.000716;,
  0.998244;0.001778;,
  0.335674;0.001778;,
  0.660708;0.001778;,
  0.998244;0.506291;,
  0.335674;0.506291;,
  0.660708;0.506291;,
  0.998244;1.000716;,
  0.491941;0.001778;,
  0.998244;0.506291;,
  0.998244;1.000716;,
  0.335674;0.506291;,
  0.660708;0.506291;,
  0.998244;0.001778;,
  0.335674;0.001778;,
  0.660708;0.001778;,
  0.998244;0.506291;,
  0.660708;0.506291;,
  0.998244;1.000716;,
  0.491941;0.001778;,
  0.335674;1.000716;,
  0.998244;0.506291;,
  0.998244;1.000716;,
  0.660708;0.506291;,
  0.660708;1.000716;,
  0.998244;0.001778;,
  0.335674;0.001778;,
  0.660708;0.001778;,
  0.998244;0.506291;,
  0.660708;0.506291;,
  0.998244;1.000716;,
  0.491941;0.001778;,
  0.998147;0.998890;,
  -0.001871;0.001505;,
  0.998147;0.001505;,
  -0.001871;0.998890;,
  0.998147;0.998890;,
  -0.001871;0.001505;,
  0.998147;0.001505;,
  -0.001871;0.998890;,
  0.998147;0.998890;,
  -0.001871;0.001505;,
  0.998147;0.001505;,
  -0.001871;0.998890;,
  0.998147;0.998890;,
  -0.001871;0.001505;,
  0.998147;0.001505;,
  -0.001871;0.998890;,
  0.998147;0.998890;,
  -0.001871;0.001505;,
  0.998147;0.001505;,
  -0.001871;0.998890;,
  0.998147;0.998890;,
  -0.001871;0.001505;,
  0.998147;0.001505;,
  -0.001871;0.998890;,
  0.998147;0.998890;,
  -0.001871;0.001505;,
  0.998147;0.001505;,
  -0.001871;0.998890;,
  0.998147;0.998890;,
  -0.001871;0.001505;,
  0.998147;0.001505;,
  -0.001871;0.998890;,
  0.998147;0.998890;,
  -0.001871;0.001505;,
  0.998147;0.001505;,
  -0.001871;0.998890;,
  0.998147;0.998890;,
  -0.001871;0.001505;,
  0.998147;0.001505;,
  -0.001871;0.998890;,
  0.998147;0.998890;,
  -0.001871;0.001505;,
  0.998147;0.001505;,
  -0.001871;0.998890;,
  0.998147;0.998890;,
  -0.001871;0.001505;,
  0.998147;0.001505;,
  -0.001871;0.998890;,
  0.998147;0.998890;,
  -0.001871;0.001505;,
  0.998147;0.001505;,
  -0.001871;0.998890;,
  0.998147;0.998890;,
  -0.001871;0.001505;,
  0.998147;0.001505;,
  -0.001871;0.998890;,
  0.998147;0.998890;,
  -0.001871;0.001505;,
  0.998147;0.001505;,
  -0.001871;0.998890;,
  0.998147;0.998890;,
  -0.001871;0.001505;,
  0.998147;0.001505;,
  -0.001871;0.998890;,
  0.998147;0.998890;,
  -0.001871;0.001505;,
  0.998147;0.001505;,
  -0.001871;0.998890;,
  0.998147;0.998890;,
  -0.001871;0.001505;,
  0.998147;0.001505;,
  -0.001871;0.998890;,
  0.998147;0.998890;,
  -0.001871;0.001505;,
  0.998147;0.001505;,
  -0.001871;0.998890;,
  0.998147;0.998890;,
  -0.001871;0.001505;,
  0.998147;0.001505;,
  -0.001871;0.998890;,
  0.998147;0.998890;,
  -0.001871;0.001505;,
  0.998147;0.001505;,
  -0.001871;0.998890;,
  0.998147;0.998890;,
  -0.001871;0.001505;,
  0.998147;0.001505;,
  -0.001871;0.998890;,
  0.998147;0.998890;,
  -0.001871;0.001505;,
  0.998147;0.001505;,
  -0.001871;0.998890;,
  0.998147;0.998890;,
  -0.001871;0.001505;,
  0.998147;0.001505;,
  -0.001871;0.998890;,
  0.998147;0.998890;,
  -0.001871;0.001505;,
  0.998147;0.001505;,
  -0.001871;0.998890;,
  0.998147;0.998890;,
  -0.001871;0.001505;,
  0.998147;0.001505;,
  -0.001871;0.998890;,
  0.998147;0.998890;,
  -0.001871;0.001505;,
  0.998147;0.001505;,
  -0.001871;0.998890;,
  0.998147;0.998890;,
  -0.001871;0.001505;,
  0.998147;0.001505;,
  -0.001871;0.998890;,
  -0.001861;0.476021;,
  -0.001861;1.000716;,
  -0.001861;0.001778;,
  -0.001861;0.476021;,
  -0.001861;1.000716;,
  -0.001861;0.476021;,
  -0.001861;1.000716;,
  -0.001861;0.001778;,
  -0.001861;0.476021;,
  -0.001861;1.000716;,
  -0.001861;0.476021;,
  -0.001861;0.476021;,
  -0.001861;0.001778;,
  -0.001861;0.001778;,
  -0.001861;0.476021;,
  -0.001861;0.476021;,
  -0.001861;1.000716;,
  -0.001861;1.000716;,
  0.998244;0.476021;,
  0.166906;0.476021;,
  -0.001861;0.476021;,
  -0.001861;0.476021;,
  0.998244;0.476021;,
  -0.001861;0.476021;,
  -0.001861;0.001778;,
  -0.001861;0.001778;,
  -0.001861;0.506291;,
  -0.001861;1.000716;,
  0.660708;1.000716;,
  -0.001861;0.001778;,
  0.660708;0.506291;,
  -0.001861;0.506291;,
  0.660708;1.000716;,
  0.335674;1.000716;,
  -0.001861;1.000716;,
  -0.001861;0.506291;,
  -0.001861;1.000716;,
  0.660708;0.001778;,
  0.335674;0.001778;,
  -0.001861;0.001778;,
  0.335674;0.506291;,
  -0.001861;0.506291;,
  0.660708;1.000716;,
  0.335674;1.000716;,
  -0.001861;1.000716;,
  -0.001861;0.506291;,
  -0.001861;1.000716;,
  -0.001861;0.001778;,
  0.660708;0.506291;,
  0.335674;0.506291;,
  -0.001861;0.506291;,
  0.660708;1.000716;,
  0.335674;1.000716;,
  -0.001861;1.000716;,
  -0.001861;0.506291;,
  -0.001861;1.000716;,
  -0.001861;0.001778;,
  -0.001861;0.506291;,
  0.660708;1.000716;,
  -0.001861;1.000716;,
  0.335674;1.000716;,
  -0.001861;0.506291;,
  -0.001861;1.000716;,
  0.660708;1.000716;,
  -0.001861;0.001778;,
  -0.001861;0.506291;,
  0.660708;1.000716;,
  0.335674;1.000716;,
  -0.001861;1.000716;,
  -0.001861;0.506291;,
  -0.001861;1.000716;,
  -0.001861;0.001778;,
  0.335674;0.506291;,
  -0.001861;0.506291;,
  0.660708;1.000716;,
  0.335674;1.000716;,
  -0.001861;1.000716;,
  -0.001861;0.506291;,
  -0.001861;1.000716;,
  -0.001861;0.001778;,
  0.335674;0.506291;,
  -0.001861;0.506291;,
  0.660708;1.000716;,
  0.335674;1.000716;,
  -0.001861;1.000716;,
  -0.001871;0.998890;,
  0.998147;0.001505;,
  -0.001871;0.001505;,
  0.998147;0.998890;,
  -0.001871;0.998890;,
  0.998147;0.001505;,
  -0.001871;0.001505;,
  0.998147;0.998890;,
  -0.001871;0.998890;,
  0.998147;0.001505;,
  -0.001871;0.001505;,
  0.998147;0.998890;,
  -0.001871;0.998890;,
  0.998147;0.001505;,
  -0.001871;0.001505;,
  0.998147;0.998890;,
  -0.001871;0.998890;,
  0.998147;0.001505;,
  -0.001871;0.001505;,
  0.998147;0.998890;,
  -0.001871;0.998890;,
  0.998147;0.001505;,
  -0.001871;0.001505;,
  0.998147;0.998890;,
  -0.001871;0.998890;,
  0.998147;0.001505;,
  -0.001871;0.001505;,
  0.998147;0.998890;,
  -0.001871;0.998890;,
  0.998147;0.001505;,
  -0.001871;0.001505;,
  0.998147;0.998890;,
  -0.001871;0.998890;,
  0.998147;0.001505;,
  -0.001871;0.001505;,
  0.998147;0.998890;,
  -0.001871;0.998890;,
  0.998147;0.001505;,
  -0.001871;0.001505;,
  0.998147;0.998890;,
  -0.001871;0.998890;,
  0.998147;0.001505;,
  -0.001871;0.001505;,
  0.998147;0.998890;,
  -0.001871;0.998890;,
  0.998147;0.001505;,
  -0.001871;0.001505;,
  0.998147;0.998890;,
  -0.001871;0.998890;,
  0.998147;0.001505;,
  -0.001871;0.001505;,
  0.998147;0.998890;,
  -0.001871;0.998890;,
  0.998147;0.001505;,
  -0.001871;0.001505;,
  0.998147;0.998890;,
  -0.001871;0.998890;,
  0.998147;0.001505;,
  -0.001871;0.001505;,
  0.998147;0.998890;,
  -0.001871;0.998890;,
  0.998147;0.001505;,
  -0.001871;0.001505;,
  0.998147;0.998890;,
  -0.001871;0.998890;,
  0.998147;0.001505;,
  -0.001871;0.001505;,
  0.998147;0.998890;,
  -0.001871;0.998890;,
  0.998147;0.001505;,
  -0.001871;0.001505;,
  0.998147;0.998890;,
  -0.001871;0.998890;,
  0.998147;0.001505;,
  -0.001871;0.001505;,
  0.998147;0.998890;,
  -0.001871;0.998890;,
  0.998147;0.001505;,
  -0.001871;0.001505;,
  0.998147;0.998890;,
  -0.001871;0.998890;,
  0.998147;0.001505;,
  -0.001871;0.001505;,
  0.998147;0.998890;,
  -0.001871;0.998890;,
  0.998147;0.001505;,
  -0.001871;0.001505;,
  0.998147;0.998890;,
  -0.001871;0.998890;,
  0.998147;0.001505;,
  -0.001871;0.001505;,
  0.998147;0.998890;,
  -0.001871;0.998890;,
  0.998147;0.001505;,
  -0.001871;0.001505;,
  0.998147;0.998890;,
  -0.001871;0.998890;,
  0.998147;0.001505;,
  -0.001871;0.001505;,
  0.998147;0.998890;,
  -0.001871;0.998890;,
  0.998147;0.001505;,
  -0.001871;0.001505;,
  0.998147;0.998890;,
  -0.001871;0.998890;,
  0.998147;0.001505;,
  -0.001871;0.001505;,
  0.998147;0.998890;,
  -0.001871;0.998890;,
  0.998147;0.001505;,
  -0.001871;0.001505;,
  0.998147;0.998890;;
 }

 VertexDuplicationIndices {
  488;
  291;
  0,
  1,
  2,
  3,
  4,
  5,
  6,
  7,
  8,
  9,
  10,
  11,
  12,
  13,
  14,
  15,
  16,
  17,
  18,
  19,
  20,
  21,
  22,
  23,
  24,
  25,
  26,
  27,
  28,
  29,
  30,
  31,
  32,
  33,
  34,
  35,
  36,
  37,
  38,
  39,
  40,
  41,
  42,
  43,
  44,
  45,
  46,
  47,
  48,
  49,
  50,
  51,
  52,
  53,
  54,
  55,
  56,
  57,
  58,
  59,
  60,
  61,
  62,
  63,
  64,
  65,
  66,
  67,
  68,
  69,
  70,
  71,
  72,
  73,
  74,
  75,
  76,
  77,
  78,
  79,
  80,
  81,
  82,
  83,
  84,
  85,
  86,
  87,
  88,
  89,
  90,
  91,
  92,
  93,
  94,
  95,
  96,
  97,
  98,
  99,
  100,
  101,
  102,
  103,
  104,
  105,
  106,
  107,
  108,
  109,
  110,
  111,
  112,
  113,
  114,
  115,
  116,
  117,
  118,
  119,
  120,
  121,
  122,
  123,
  124,
  125,
  126,
  127,
  128,
  129,
  130,
  131,
  132,
  133,
  134,
  135,
  136,
  137,
  138,
  139,
  140,
  141,
  142,
  143,
  144,
  145,
  146,
  147,
  148,
  149,
  150,
  151,
  152,
  153,
  154,
  155,
  156,
  157,
  158,
  159,
  160,
  161,
  162,
  163,
  164,
  165,
  166,
  167,
  168,
  169,
  170,
  171,
  172,
  173,
  174,
  175,
  176,
  177,
  178,
  179,
  180,
  181,
  182,
  183,
  184,
  185,
  186,
  187,
  188,
  189,
  190,
  191,
  192,
  193,
  194,
  195,
  196,
  197,
  198,
  199,
  200,
  201,
  202,
  203,
  204,
  205,
  206,
  207,
  208,
  209,
  210,
  211,
  212,
  213,
  214,
  215,
  216,
  217,
  218,
  219,
  220,
  221,
  222,
  223,
  224,
  225,
  226,
  227,
  228,
  229,
  230,
  231,
  232,
  233,
  234,
  235,
  236,
  237,
  238,
  239,
  240,
  241,
  242,
  243,
  244,
  245,
  246,
  247,
  248,
  249,
  250,
  251,
  252,
  253,
  254,
  255,
  256,
  257,
  258,
  259,
  260,
  261,
  262,
  263,
  264,
  265,
  266,
  267,
  268,
  269,
  270,
  271,
  272,
  273,
  274,
  275,
  276,
  277,
  278,
  279,
  280,
  281,
  282,
  283,
  284,
  285,
  286,
  287,
  288,
  289,
  290,
  1,
  3,
  5,
  7,
  9,
  26,
  27,
  28,
  29,
  30,
  41,
  47,
  51,
  56,
  61,
  66,
  71,
  76,
  81,
  81,
  81,
  82,
  86,
  86,
  91,
  92,
  94,
  95,
  98,
  99,
  102,
  102,
  104,
  104,
  104,
  106,
  107,
  110,
  110,
  110,
  111,
  111,
  113,
  113,
  113,
  116,
  117,
  121,
  124,
  124,
  124,
  125,
  125,
  125,
  128,
  129,
  133,
  136,
  139,
  139,
  142,
  143,
  144,
  147,
  148,
  151,
  154,
  154,
  154,
  156,
  157,
  160,
  163,
  163,
  165,
  165,
  165,
  168,
  169,
  172,
  175,
  175,
  177,
  177,
  177,
  179,
  180,
  181,
  182,
  183,
  184,
  185,
  186,
  187,
  188,
  189,
  190,
  191,
  192,
  193,
  194,
  195,
  196,
  197,
  198,
  199,
  200,
  201,
  202,
  203,
  204,
  205,
  206,
  207,
  208,
  209,
  210,
  211,
  212,
  213,
  214,
  215,
  216,
  217,
  218,
  219,
  220,
  221,
  222,
  223,
  224,
  225,
  226,
  227,
  228,
  229,
  230,
  231,
  232,
  233,
  234,
  235,
  236,
  237,
  238,
  239,
  240,
  241,
  242,
  243,
  244,
  245,
  246,
  247,
  248,
  249,
  250,
  251,
  252,
  253,
  254,
  255,
  256,
  257,
  258,
  259,
  260,
  261,
  262,
  263,
  264,
  265,
  266,
  267,
  268,
  269,
  270,
  271,
  272,
  273,
  274,
  275,
  276,
  277,
  278,
  279,
  280,
  281,
  282,
  283,
  284,
  285,
  286,
  287,
  288,
  289,
  290;
 }

 MeshMaterialList {
  2;
  477;
  0,
  0,
  0,
  0,
  0,
  0,
  0,
  0,
  0,
  0,
  0,
  0,
  0,
  0,
  0,
  0,
  0,
  0,
  0,
  0,
  0,
  0,
  0,
  0,
  0,
  0,
  0,
  0,
  0,
  0,
  0,
  0,
  0,
  0,
  0,
  0,
  0,
  0,
  0,
  0,
  0,
  0,
  0,
  0,
  0,
  0,
  0,
  0,
  0,
  0,
  0,
  0,
  0,
  0,
  0,
  0,
  0,
  0,
  0,
  0,
  0,
  0,
  0,
  0,
  0,
  0,
  0,
  0,
  0,
  0,
  0,
  0,
  0,
  0,
  0,
  0,
  0,
  0,
  0,
  0,
  0,
  0,
  0,
  0,
  0,
  0,
  0,
  0,
  0,
  0,
  0,
  0,
  0,
  0,
  0,
  0,
  0,
  0,
  0,
  0,
  0,
  0,
  0,
  0,
  0,
  0,
  0,
  0,
  0,
  0,
  0,
  0,
  0,
  0,
  0,
  0,
  0,
  0,
  0,
  0,
  0,
  0,
  0,
  0,
  0,
  0,
  0,
  0,
  0,
  0,
  0,
  0,
  0,
  0,
  0,
  0,
  0,
  0,
  0,
  0,
  0,
  0,
  0,
  0,
  0,
  0,
  0,
  0,
  0,
  0,
  0,
  0,
  0,
  0,
  0,
  0,
  0,
  0,
  0,
  0,
  0,
  0,
  0,
  0,
  0,
  0,
  0,
  0,
  0,
  0,
  0,
  0,
  0,
  0,
  0,
  0,
  0,
  0,
  0,
  0,
  0,
  0,
  0,
  0,
  0,
  0,
  0,
  0,
  0,
  0,
  0,
  0,
  0,
  0,
  0,
  0,
  0,
  0,
  0,
  0,
  0,
  0,
  0,
  0,
  0,
  0,
  0,
  0,
  0,
  0,
  0,
  0,
  0,
  0,
  0,
  0,
  0,
  0,
  0,
  0,
  0,
  0,
  0,
  0,
  0,
  0,
  0,
  0,
  0,
  0,
  0,
  0,
  0,
  0,
  0,
  0,
  0,
  0,
  0,
  0,
  0,
  0,
  0,
  0,
  0,
  0,
  0,
  0,
  0,
  0,
  0,
  0,
  0,
  0,
  0,
  0,
  0,
  0,
  0,
  0,
  0,
  0,
  0,
  0,
  0,
  0,
  0,
  0,
  0,
  0,
  0,
  0,
  0,
  0,
  0,
  0,
  0,
  0,
  0,
  0,
  0,
  0,
  0,
  0,
  0,
  0,
  0,
  0,
  0,
  0,
  0,
  0,
  0,
  0,
  0,
  0,
  0,
  0,
  0,
  0,
  0,
  0,
  0,
  0,
  0,
  0,
  0,
  0,
  0,
  0,
  0,
  0,
  0,
  0,
  0,
  0,
  0,
  0,
  0,
  0,
  0,
  0,
  0,
  0,
  0,
  0,
  0,
  0,
  0,
  0,
  0,
  0,
  0,
  0,
  0,
  0,
  0,
  0,
  0,
  0,
  0,
  0,
  0,
  0,
  0,
  0,
  0,
  0,
  0,
  0,
  0,
  0,
  0,
  0,
  0,
  0,
  0,
  0,
  0,
  0,
  0,
  0,
  0,
  0,
  0,
  1,
  1,
  1,
  1,
  1,
  1,
  1,
  1,
  1,
  1,
  1,
  1,
  1,
  1,
  1,
  1,
  1,
  1,
  1,
  1,
  1,
  1,
  1,
  1,
  1,
  1,
  1,
  1,
  1,
  1,
  1,
  1,
  1,
  1,
  1,
  1,
  1,
  1,
  1,
  1,
  1,
  1,
  1,
  1,
  1,
  1,
  1,
  1,
  1,
  1,
  1,
  1,
  1,
  1,
  1,
  1,
  1,
  1,
  1,
  1,
  1,
  1,
  1,
  1,
  1,
  1,
  1,
  1,
  1,
  1,
  1,
  1,
  1,
  1,
  1,
  1,
  1,
  1,
  1,
  1,
  1,
  1,
  1,
  1,
  1,
  1,
  1,
  1,
  1,
  1,
  1,
  1,
  1,
  1,
  1,
  1,
  1,
  1,
  1,
  1,
  1,
  1,
  1,
  1,
  1,
  1,
  1,
  1,
  1,
  1,
  1,
  1;

  Material Skin1 {
   0.752941;0.752941;0.752941;1.000000;;
   40.000000;
   0.000000;0.000000;0.000000;;
   0.000000;0.000000;0.000000;;

   TextureFilename {
    "t3_b.bmp";
   }
  }

  Material Skin2 {
   0.752941;0.752941;0.752941;1.000000;;
   40.000000;
   0.000000;0.000000;0.000000;;
   0.000000;0.000000;0.000000;;

   TextureFilename {
    "t3_c.tga";
   }
  }
 }
}